{ "_id" : { "$oid" : "550b5a2fe4b09b076b58ae21" }, "fax" : [], "specialisms" : [ "cloud-based", "enterprise", "IT", "infrastructure", "Design", "Implementation", "Platforms", "Managed", "Services" ], "addresses" : [ { "address1" : "Saxon House", "address2" : "Downside", "country" : "", "postcode" : "TW16 6RT", "longitude" : "-0.418477", "town" : "Sunbury-on-Thames", "county" : "", "latitude" : "51.417781", "geocoder" : [] } ], "brands" : [ "OpenBet", "Danske Spil", "Ladbrokes", "Betfair", "Rank" ], "tel" : [ "020 8750 2200" ], "name" : "Ardenta", "description" : "Ardenta delivers highly tuned enterprise information systems to e-gaming operators on a global scale. Our customers benefit from the specialist skills we have within the industry and, through our partnerships with leading vendors, access the optimal technologies in order to compete aggressively. We deliver services through expertise and innovation, ensuring you of an elegantly designed, expertly implemented and smoothly managed and secure IT infrastructure 24/7/365 with rigorous service level agreements.", "vendorID" : "54d3a1444a63c3545f8b456b", "platformMetadata" : { "modifiedDate" : { "$date" : "2015-06-04T16:24:59.065+0100" } }, "geographies" : [ "Scotland", "Northern Ireland", "Republic of Ireland", "Wales - N", "Wales - S", "England - NE", "England - NW", "England - Central", "England - SE & London", "England - SW" ] }
{ "_id" : { "$oid" : "550bf2a7e9ec60fe403adc3a" }, "name" : "stetest", "brands" : [ "stetest", "stetest" ], "specialisms" : [ "stetest", "stetest" ], "addresses" : [ { "address2" : "Line 2", "town" : "TownName", "county" : "Countyshire", "country" : "UK", "postcode" : "B9 4AA", "latitude" : "52.475366", "longitude" : "-1.884605", "address1" : "1 Road Name" } ], "tel" : [ "01234567890", "01234567890" ], "fax" : [ "4353454354", "4353454354" ], "description" : "stetest", "email" : [ "email1@address.com", "email2@address.com" ], "vendorID" : "12345", "platformMetadata" : { "modifiedDate" : { "$date" : "2015-03-20T10:12:55.045+0000" } } }
{ "_id" : { "$oid" : "550fe2e6e9ec60ff57734f74" }, "specialisms" : [ "stetest", "stetest" ], "addresses" : [ { "address1" : "1 Road Name", "address2" : "Line 2", "town" : "TownName", "county" : "Countyshire", "country" : "UK", "postcode" : "B9 4AA", "latitude" : "52.475366", "longitude" : "-1.884605" } ], "email" : [ "email1@address.com", "email2@address.com" ], "platformMetadata" : { "modifiedDate" : { "$date" : "2015-03-23T09:55:06.026+0000" } }, "name" : "stetest", "description" : "stetest", "tel" : [ "01234567890", "01234567890" ], "fax" : [ "4353454354", "4353454354" ], "vendorID" : "12345", "brands" : [ "stetest", "stetest" ] }
{ "_id" : { "$oid" : "551a8d0ecda36f7b6a54b821" }, "brands" : [ "Lenovo", "IBM", "VMware", "HP" ], "fax" : [], "specialisms" : [ "Computer Components", "Display Solutions", "Integrated Solutions & OEM", "Security & Networking Solutions", "Server & Infrastructure", "Software", "Storage", "Virtualisation" ], "addresses" : [ { "address1" : "The Capitol Building", "town" : "Bracknell", "country" : "", "longitude" : "-0.7630776999999398", "address2" : "Oldbury", "county" : "", "postcode" : "RG12 8FZ", "latitude" : "51.4125634", "geocoder" : {} } ], "description" : "Avnet Technology Solutions is a global IT solutions distributor dedicated to accelerating the success of its customers and suppliers by providing the services, resources and knowledge needed to capitalise on growth opportunities.", "platformMetadata" : { "modifiedDate" : { "$date" : "2015-03-31T13:03:26.948+0100" } }, "tel" : [ "01344 662 000" ], "geographies" : [ "Scotland", "Northern Ireland", "Republic of Ireland", "Wales - N", "Wales - S", "England - NE", "England - NW", "England - Central", "England - SE & London", "England - SW" ], "name" : "Avnet Technology Solutions", "vendorID" : "550ad8d7e9ec6008208b4567" }
{ "_id" : { "$oid" : "55514a97cda36f453f183483" }, "brands" : [ "Available on request." ], "fax" : [], "tel" : [ "0845 226 0542" ], "specialisms" : [ "IAM", "IAG", "Cloud", "IDaaS", "Single Sign-On", "Identity Management", "Security Intelligence" ], "addresses" : [ { "address1" : "One Canada Square", "address2" : "Canary Wharf", "town" : "London", "county" : "", "country" : "", "postcode" : "E14 5AA", "latitude" : "51.504954", "longitude" : "-0.019450399999982437", "geocoder" : [] } ], "geographies" : [ "Scotland", "Northern Ireland", "Republic of Ireland", "Wales - N", "Wales - S", "England - NE", "England - NW", "England - Central", "England - SE & London", "England - SW" ], "name" : "Pirean", "description" : "Recognised experts in Identity and Access Management, we deliver best practice solutions through a unique Software, Consulting and Support based approach. With over a decade of experience and references, we believe we are uniquely qualified to lend our voice to any IAM debate or issue. Our past deployments encompass customers of every size across all industries including financial services, energy, government, education, insurance, and retail.", "vendorID" : "54d3a1444a63c3545f8b456b", "platformMetadata" : { "modifiedDate" : { "$date" : "1970-01-01T01:00:02.015+0000" } } }
{ "_id" : { "$oid" : "55549984cda36fe619668aa6" }, "brands" : [ "Available on request" ], "fax" : [], "tel" : [ "07792 827659" ], "specialisms" : [ "Financial planning", "Budgeting", "Forecasting", "Analytics", "Cognos", "TM1" ], "addresses" : [ { "address1" : "10 Lochside Place", "address2" : "", "town" : "Edinburgh", "county" : "", "country" : "", "postcode" : "EH12 9RG", "latitude" : "55.9317106", "longitude" : "-3.3143350000000282", "geocoder" : [] } ], "geographies" : [ "Scotland", "Northern Ireland", "Republic of Ireland", "Wales - N", "Wales - S", "England - NE", "England - NW", "England - Central", "England - SE & London", "England - SW" ], "name" : "Barrachd Ltd", "description" : "Barrachd exists to help our customers uncover what they don’t know, before it’s too late. Our name means ‘more’ in Gaelic and that’s what we try to deliver; more empathy, more support, more answers. One thing we don’t deliver is more data. Nobody needs more data. What’s missing is insight. By piecing together the puzzle of their data, we give our customers exactly what they need to know, so they can act before it’s too late. What would you have done differently if you’d had all the answers ahead of time?", "vendorID" : "54d3a1444a63c3545f8b456b", "platformMetadata" : { "modifiedDate" : { "$date" : "1970-01-01T01:00:02.015+0000" } } }
{ "_id" : { "$oid" : "55549c45cda36f0c1b668aa6" }, "brands" : [ "Virgin Media" ], "fax" : [], "tel" : [ "0870 120 3148" ], "specialisms" : [ "IBM i", "Security Compliance & Risk", "iSeries AS/400" ], "addresses" : [ { "address1" : "Fleet Mill A, Infineon House", "address2" : "Minley Road", "town" : "Fleet", "county" : "Hampshire", "country" : "", "postcode" : "GU51 2RD", "latitude" : "51.2970299", "longitude" : "-0.8302415000000565", "geocoder" : [] } ], "geographies" : [ "Scotland", "Northern Ireland", "Republic of Ireland", "Wales - N", "Wales - S", "England - NE", "England - NW", "England - Central", "England - SE & London", "England - SW" ], "name" : "HelpSystems", "description" : "HelpSystems delivers IT infrastructure software to over 8,700 customers worldwide in the areas of systems and network management, business intelligence, and security and compliance for IBM i, Unix, Linux, and Windows environments.", "vendorID" : "54d3a1444a63c3545f8b456b", "platformMetadata" : { "modifiedDate" : { "$date" : "1970-01-01T01:00:02.015+0000" } } }
{ "_id" : { "$oid" : "5559b8f0cda36f9a02539b36" }, "brands" : [ "Available on request." ], "fax" : [], "tel" : [ "0845 557 5705" ], "specialisms" : [ "High Availability", "Disaster Recovery", "Business Continuity", "Cloud Services", "IBM i" ], "addresses" : [ { "address1" : "Riverside Business Centre Suite 15", "address2" : "River Lawn Road", "town" : "Tonbridge", "county" : "Kent", "country" : "", "postcode" : "TN9 1EP", "latitude" : "51.193225", "longitude" : "0.27196409999999105", "geocoder" : {} } ], "geographies" : [ "Scotland", "Northern Ireland", "Republic of Ireland", "Wales - N", "Wales - S", "England - NE", "England - NW", "England - Central", "England - SE & London", "England - SW" ], "name" : "Maxava", "description" : "Maxava is an IBM premier business partner and worldwide provider of innovative business continuity software solutions for IBM i. The Maxava HA Suite provides proven, real-time replication to deliver enterprise-strength high availability and disaster recovery for all sizes of organization, even in the toughest environments. The Maxava HA Suite is fast, reliable and easy to implement and maintain, providing cost effective, scalable and secure data replication through SaaS, Cloud, subscription and traditional licensed software models.", "vendorID" : "54d3a1444a63c3545f8b456b", "platformMetadata" : { "modifiedDate" : { "$date" : "1970-01-01T01:00:02.015+0000" } } }
