{ "_id" : { "$oid" : "54e1efb54a63c37b048b4578" }, "platformMetadata" : { "modifiedDate" : { "$date" : "2015-02-16T13:25:09.496+0000" } }, "email" : "ste.richards@gmail.com" }
{ "_id" : { "$oid" : "54edbb164a63c326078b456f" }, "email" : "ste.richards@gmail.com", "platformMetadata" : { "modifiedDate" : { "$date" : "2015-02-25T12:07:50.221+0000" } } }
{ "_id" : { "$oid" : "54ede0904a63c378048b4567" }, "email" : "ste.richards@gmail.com", "platformMetadata" : { "modifiedDate" : { "$date" : "2015-02-25T14:47:44.437+0000" } } }
{ "_id" : { "$oid" : "54f445a24a63c317438b4567" }, "platformMetadata" : { "modifiedDate" : { "$date" : "2015-03-02T11:12:34.596+0000" } }, "email" : "ste.richards@gmail.com" }
{ "_id" : { "$oid" : "54f5d7294a63c301488b4567" }, "email" : "ste.richards@gmail.com", "platformMetadata" : { "modifiedDate" : { "$date" : "2015-03-03T15:45:45.025+0000" } } }
{ "_id" : { "$oid" : "54f5d7584a63c30f438b4569" }, "email" : "ste.richards@gmail.com", "platformMetadata" : { "modifiedDate" : { "$date" : "2015-03-03T15:46:32.624+0000" } } }
{ "_id" : { "$oid" : "54f5d7894a63c312438b456b" }, "platformMetadata" : { "modifiedDate" : { "$date" : "2015-03-03T15:47:21.360+0000" } } }
{ "_id" : { "$oid" : "54f5d9604a63c37e048b4567" }, "email" : "ste.richards@gmail.com", "platformMetadata" : { "modifiedDate" : { "$date" : "2015-03-03T15:55:12.508+0000" } } }
{ "_id" : { "$oid" : "54f5d99f4a63c37a048b4567" }, "email" : "", "platformMetadata" : { "modifiedDate" : { "$date" : "2015-03-03T15:56:15.193+0000" } } }
{ "_id" : { "$oid" : "54f5d9a34a63c37a048b4568" }, "platformMetadata" : { "modifiedDate" : { "$date" : "2015-03-03T15:56:19.679+0000" } } }
{ "_id" : { "$oid" : "54f5de8b4a63c313438b456b" }, "email" : "t@b.com", "platformMetadata" : { "modifiedDate" : { "$date" : "2015-03-03T16:17:15.381+0000" } } }
{ "_id" : { "$oid" : "54f5df254a63c301488b456a" }, "email" : "hh", "platformMetadata" : { "modifiedDate" : { "$date" : "2015-03-03T16:19:49.635+0000" } } }
{ "_id" : { "$oid" : "54f5e0384a63c30f438b456c" }, "email" : "ggg", "platformMetadata" : { "modifiedDate" : { "$date" : "2015-03-03T16:24:24.116+0000" } } }
