{ "_id" : { "$oid" : "54f060cc4a63c38b048b4569" }, "videos" : [ "Cloud", "HVEC", "Proliant", "V7000", "VNXe" ], "vendor_id" : "12345", "platformMetadata" : { "modifiedDate" : { "$date" : "2015-02-27T12:19:24.227+0000" } } }
{ "_id" : { "$oid" : "55084240a760346f2de46063" }, "platformMetadata" : { "modifiedDate" : { "$date" : "2015-03-27T17:54:57.962+0000" } }, "tags" : [ "Converged_Infrastructure", "IBM", "Infrastructure" ], "vendorID" : "54d3a1444a63c3545f8b456b", "videos" : [ "Cloud", "HVEC", "Proliant", "V7000", "VNXe" ] }
{ "_id" : { "$oid" : "550ae0fce9ec6002218b4569" }, "videos" : [ "Cloud", "HVEC", "Proliant", "V7000", "VNXe" ], "platformMetadata" : { "modifiedDate" : { "$date" : "2015-03-19T14:45:16.793+0000" } }, "vendorID" : "54dde1d84a63c319078b4569" }
{ "_id" : { "$oid" : "551538becda36fe33b19556c" }, "vendorID" : "550ad8d7e9ec6008208b4567", "tags" : [ "Lenovo" ], "platformMetadata" : { "modifiedDate" : { "$date" : "2015-05-29T09:21:15.754+0100" } } }
{ "_id" : { "$oid" : "554c9808cda36fb93ce75186" }, "vendorID" : "55397ef4cda36fba3ed30e56", "tags" : [ "HP" ], "platformMetadata" : { "modifiedDate" : { "$date" : "2015-05-08T12:03:36.196+0100" } } }
{ "_id" : { "$oid" : "5553d842cda36fe566443ded" }, "vendorID" : "553979b9cda36f7c3ed30e52", "tags" : [ "EMC" ], "platformMetadata" : { "modifiedDate" : { "$date" : "2015-05-14T00:03:30.064+0100" } } }
