{ "_id" : { "$oid" : "5515886dcda36f9d7319556c" }, "vendorID" : "54d3a1444a63c3545f8b456b", "description" : "Ardenta’s infrastructure solution addresses the design, as well as the selection and implementation of the hardware, software, networking, services and support environment for online betting applications. The cloud based infrastructure enables a much wider range of products and, improved functionality, at a pace and with technologies which allow operators to compete aggressively in the gaming sector.", "platformMetadata" : { "modifiedDate" : { "$date" : "2015-05-12T01:28:56.610+0100" } }, "partner" : { "fax" : [], "specialisms" : [ "cloud-based", "enterprise", "IT", "infrastructure", "Design", "Implementation", "Platforms", "Managed", "Services" ], "addresses" : [ { "address1" : "Saxon House", "address2" : "Downside", "country" : "", "postcode" : "TW16 6RT", "longitude" : "-0.418477", "town" : "Sunbury-on-Thames", "county" : "", "latitude" : "51.417781", "geocoder" : [] } ], "brands" : [ "OpenBet", "Danske Spil", "Ladbrokes", "Betfair", "Rank" ], "tel" : [ "020 8750 2200" ], "name" : "Ardenta", "description" : "Ardenta delivers highly tuned enterprise information systems to e-gaming operators on a global scale. Our customers benefit from the specialist skills we have within the industry and, through our partnerships with leading vendors, access the optimal technologies in order to compete aggressively. We deliver services through expertise and innovation, ensuring you of an elegantly designed, expertly implemented and smoothly managed and secure IT infrastructure 24/7/365 with rigorous service level agreements.", "vendorID" : "54d3a1444a63c3545f8b456b", "id" : "550b5a2fe4b09b076b58ae21", "modifiedDate" : "2015-03-19T21:18:34+00:00", "ticked" : true }, "title" : "Cloud-based betting platform", "currentTags" : { "industries" : [ "Media and entertainment" ], "solutionTags" : [ "Cloud" ], "lineOfBusiness" : [ "Sales", "Infrastructure" ] }, "references" : [ "OpenBet", "Danske Spil", "Ladbrokes", "Betfair", "Rank" ], "keywords" : [ "cloud-based", "enterprise", "IT", "infrastructure", "design", "implementation", "platforms", "managed services" ] }
{ "_id" : { "$oid" : "5515886dcda36f9d7319556d" }, "vendorID" : "54d3a1444a63c3545f8b456b", "description" : "Ardenta’s infrastructure solution addresses the design, as well as the selection and implementation of the hardware, software, networking, services and support environment for online betting applications. The cloud based infrastructure enables a much wider range of products and, improved functionality, at a pace and with technologies which allow operators to compete aggressively in the gaming sector.", "platformMetadata" : { "modifiedDate" : { "$date" : "2015-06-03T12:59:47.816+0100" } }, "partner" : { "fax" : [], "specialisms" : [ "cloud-based", "enterprise", "IT", "infrastructure", "Design", "Implementation", "Platforms", "Managed", "Services" ], "addresses" : [ { "address1" : "Saxon House", "address2" : "Downside", "country" : "", "postcode" : "TW16 6RT", "longitude" : "-0.418477", "town" : "Sunbury-on-Thames", "county" : "", "latitude" : "51.417781", "geocoder" : [] } ], "brands" : [ "OpenBet", "Danske Spil", "Ladbrokes", "Betfair", "Rank" ], "tel" : [ "020 8750 2200" ], "name" : "Ardenta", "description" : "Ardenta delivers highly tuned enterprise information systems to e-gaming operators on a global scale. Our customers benefit from the specialist skills we have within the industry and, through our partnerships with leading vendors, access the optimal technologies in order to compete aggressively. We deliver services through expertise and innovation, ensuring you of an elegantly designed, expertly implemented and smoothly managed and secure IT infrastructure 24/7/365 with rigorous service level agreements.", "vendorID" : "54d3a1444a63c3545f8b456b", "id" : "550b5a2fe4b09b076b58ae21", "modifiedDate" : "2015-03-19T21:18:34+00:00", "ticked" : true }, "title" : "Cloud-based betting platform", "currentTags" : { "industries" : [ "Media and entertainment" ], "solutionTags" : [ "Cloud" ], "lineOfBusiness" : [ "Sales", "Infrastructure" ] }, "references" : [ "OpenBet", "Danske Spil", "Ladbrokes", "Betfair", "Rank" ], "keywords" : [ "cloud-based", "enterprise", "IT", "infrastructure", "design", "implementation", "platforms", "managed services" ] }
{ "_id" : { "$oid" : "554bd246cda36fd3298b4567" }, "vendorID" : "54d3a1444a63c3545f8b456b", "references" : [ "On request" ], "keywords" : [ "IAM", "IAG", "Cloud", "IDaaS", "Single Sign-On", "Identity Management", "Security Intelligence" ], "title" : "Access: One", "description" : "Pirean enable organisations to provide secure, people-focused access for employees, customers and partners across on-premise and cloud-based applications.\n\nAccess: One is an award-winning platform for Identity and Access Governance (IAG). Deployed on-premise or in the cloud, Access: One offers enterprise security services in an easy to deploy, easy to consume and easy to reuse pattern that:\n\nImproves productivity and reduces manual effort; \nIntroduces services for Single Sign-On and Self-Service; \nIntroduces a single point of control and audit; and \nCombines best practice IAG services with a first class user experience.", "currentTags" : { "industries" : [ "Aerospace and defense", "Automotive", "Banking and financial markets", "Chemical and petroleum", "Consumer products", "Education", "Electronics", "Energy and utilities", "Government", "Healthcare providers", "Health Plans", "Life sciences", "Industrial products", "Insurance", "Media and entertainment", "Retail", "Travel and transportation" ], "solutionTags" : [ "Cloud", "Mobile", "Security" ], "lineOfBusiness" : [ "Sales", "Infrastructure", "Operations", "Finance", "Marketing", "HR", "Facilities" ] }, "platformMetadata" : { "modifiedDate" : { "$date" : "2015-05-18T10:27:13.431+0100" } }, "brochureId" : "554bdac6cda36f3b2c8b4567", "partner" : { "brands" : [], "fax" : [], "tel" : [ "0845 226 0542" ], "specialisms" : [ "IAM", "IAG", "Cloud", "IDaaS", "Single Sign-On", "Identity Management", "Security Intelligence" ], "addresses" : [ { "address1" : "One Canada Square", "address2" : "Canary Wharf", "town" : "London", "county" : "", "country" : "", "postcode" : "E14 5AA", "latitude" : "51.504954", "longitude" : "-0.019450399999982437", "geocoder" : [] } ], "geographies" : [ "Scotland", "Northern Ireland", "Republic of Ireland", "Wales - N", "Wales - S", "England - NE", "England - NW", "England - Central", "England - SE & London", "England - SW" ], "name" : "Pirean", "description" : "Recognised experts in Identity and Access Management, we deliver best practice solutions through a unique Software, Consulting and Support based approach. With over a decade of experience and references, we believe we are uniquely qualified to lend our voice to any IAM debate or issue. Our past deployments encompass customers of every size across all industries including financial services, energy, government, education, insurance, and retail.", "vendorID" : "54d3a1444a63c3545f8b456b", "id" : "55514a97cda36f453f183483", "modifiedDate" : "2015-05-12T00:34:31+00:00", "ticked" : true } }
{ "_id" : { "$oid" : "55549b68cda36fdf1a668aa6" }, "vendorID" : "54d3a1444a63c3545f8b456b", "references" : [ "Available on request." ], "keywords" : [ "Financial planning", "Budgeting", "Forecasting", "Analytics", "Cognos", "TM1" ], "partner" : { "brands" : [ "You need to provide up to the minute, accurate forecasts and frequent reforecasting is required to improve decision making in the business. Barrachd can help you streamline this process" ], "fax" : [], "tel" : [ "07792 827659" ], "specialisms" : [ "Financial planning", "Budgeting", "Forecasting", "Analytics", "Cognos", "TM1" ], "addresses" : [ { "address1" : "10 Lochside Place", "address2" : "", "town" : "Edinburgh", "county" : "", "country" : "", "postcode" : "EH12 9RG", "latitude" : "55.9317106", "longitude" : "-3.3143350000000282", "geocoder" : [] } ], "geographies" : [ "Scotland", "Northern Ireland", "Republic of Ireland", "Wales - N", "Wales - S", "England - NE", "England - NW", "England - Central", "England - SE & London", "England - SW" ], "name" : "Barrachd Ltd", "description" : "You need to provide up to the minute, accurate forecasts and frequent reforecasting is required to improve decision making in the business. Barrachd can help you streamline this process\n\nBarrachd exists to help our customers uncover what they don’t know, before it’s too late. Our name means ‘more’ in Gaelic and that’s what we try to deliver; more empathy, more support, more answers. One thing we don’t deliver is more data. Nobody needs more data. What’s missing is insight. By piecing together the puzzle of their data, we give our customers exactly what they need to know, so they can act before it’s too late. What would you have done differently if you’d had all the answers ahead of time?", "vendorID" : "54d3a1444a63c3545f8b456b", "id" : "55549984cda36fe619668aa6", "modifiedDate" : "2015-05-14T12:53:16+00:00", "ticked" : true }, "title" : "Financial Planning, Budgeting and Forecasting", "description" : "You need to provide up to the minute, accurate forecasts and frequent reforecasting is required to improve decision making in the business. Barrachd can help you streamline this process.\n\nIt’s time to move beyond spreadsheets. We can help you develop budgets and forecasts faster and more efficiently. Integrated planning, forecasting and analysis will help you achieve outstanding performance no matter how complex your business. With our solution you can access current, actual data to assess your fiscal performance, build flexible plans and models to meet your business needs, and progress from “what is” to evaluate the “what if” scenarios critical to forecasting future performance.", "currentTags" : { "industries" : [ "Aerospace and defense", "Automotive", "Banking and financial markets", "Chemical and petroleum", "Consumer products", "Education", "Electronics", "Energy and utilities", "Government", "Healthcare providers", "Health Plans", "Life sciences", "Industrial products", "Insurance", "Media and entertainment", "Retail", "Travel and transportation" ], "solutionTags" : [ "Cloud", "Analytics" ], "lineOfBusiness" : [ "Sales", "Operations", "Finance" ] }, "platformMetadata" : { "modifiedDate" : { "$date" : "2015-05-18T10:23:58.955+0100" } } }
{ "_id" : { "$oid" : "5559b51fcda36f4102539b36" }, "vendorID" : "54d3a1444a63c3545f8b456b", "references" : [ "Virgin Media" ], "keywords" : [ "IBM i", "Security Compliance & Risk", "iSeries AS/400" ], "partner" : { "brands" : [ "Virgin Media" ], "fax" : [], "tel" : [ "0870 120 3148" ], "specialisms" : [ "IBM i", "Security Compliance & Risk", "iSeries AS/400" ], "addresses" : [ { "address1" : "Fleet Mill A, Infineon House", "address2" : "Minley Road", "town" : "Fleet", "county" : "Hampshire", "country" : "", "postcode" : "GU51 2RD", "latitude" : "51.2970299", "longitude" : "-0.8302415000000565", "geocoder" : [] } ], "geographies" : [ "Scotland", "Northern Ireland", "Republic of Ireland", "Wales - N", "Wales - S", "England - NE", "England - NW", "England - Central", "England - SE & London", "England - SW" ], "name" : "HelpSystems", "description" : "HelpSystems delivers IT infrastructure software to over 8,700 customers worldwide in the areas of systems and network management, business intelligence, and security and compliance for IBM i, Unix, Linux, and Windows environments.", "vendorID" : "54d3a1444a63c3545f8b456b", "id" : "55549c45cda36f0c1b668aa6", "modifiedDate" : "2015-05-18T09:30:23+00:00", "ticked" : true }, "brochureId" : "5579ca65cda36fed745b62d9", "description" : "PowerTech is the leading source of automated security and compliance solutions for Power Systems servers running IBM i. Our products are coupled with world-class support, helping you manage the risk of costly data breaches and meet the requirements of PCI, ISO, Data Privacy and other security regulations.\n\nCompliance Monitor gathers a broad set of audit and security data from your Power Systems™ running IBM i. Its easy-to-use web interface consolidates data from multiple systems and lets you select, run, and view the reports you want to see. Reports can even be automatically scheduled for email delivery.", "title" : "PowerTech Compliance Monitor", "currentTags" : { "industries" : [ "Aerospace and defense", "Automotive", "Banking and financial markets", "Chemical and petroleum", "Consumer products", "Education", "Electronics", "Energy and utilities", "Government", "Healthcare providers", "Health Plans", "Life sciences", "Industrial products", "Insurance", "Media and entertainment", "Retail", "Travel and transportation" ], "solutionTags" : [ "Security" ], "lineOfBusiness" : [ "Infrastructure", "Operations" ] }, "platformMetadata" : { "modifiedDate" : { "$date" : "2015-06-11T18:50:31.505+0100" } } }
{ "_id" : { "$oid" : "5559b6e2cda36fc702539b37" }, "vendorID" : "54d3a1444a63c3545f8b456b", "references" : [ "Virgin Media" ], "keywords" : [ "IBM i", "Security Compliance & Risk", "iSeries AS/400", "Exit Points" ], "partner" : { "brands" : [ "Virgin Media" ], "fax" : [], "tel" : [ "0870 120 3148" ], "specialisms" : [ "IBM i", "Security Compliance & Risk", "iSeries AS/400" ], "addresses" : [ { "address1" : "Fleet Mill A, Infineon House", "address2" : "Minley Road", "town" : "Fleet", "county" : "Hampshire", "country" : "", "postcode" : "GU51 2RD", "latitude" : "51.2970299", "longitude" : "-0.8302415000000565", "geocoder" : [] } ], "geographies" : [ "Scotland", "Northern Ireland", "Republic of Ireland", "Wales - N", "Wales - S", "England - NE", "England - NW", "England - Central", "England - SE & London", "England - SW" ], "name" : "HelpSystems", "description" : "HelpSystems delivers IT infrastructure software to over 8,700 customers worldwide in the areas of systems and network management, business intelligence, and security and compliance for IBM i, Unix, Linux, and Windows environments.", "vendorID" : "54d3a1444a63c3545f8b456b", "id" : "55549c45cda36f0c1b668aa6", "modifiedDate" : "2015-05-18T09:30:23+00:00", "ticked" : true }, "title" : "PowerTech Network Security", "description" : "PowerTech is the leading source of automated security and compliance solutions for Power Systems servers running IBM i. Our products are coupled with world-class support, helping you manage the risk of costly data breaches and meet the requirements of PCI, ISO, Data Privacy and other security regulations.\n\nProtect your organization from the high cost and negative publicity of security breaches by tracking, monitoring, and controlling access to your data. Be sure that you know who accessed what, when it happened, and how they got there. Network Security safeguards your System i by using exit programs that allow only people that you have authorized to download or upload data.", "brochureId" : "5559b6e0cda36fc702539b36", "currentTags" : { "industries" : [ "Aerospace and defense", "Automotive", "Banking and financial markets", "Chemical and petroleum", "Consumer products", "Education", "Electronics", "Energy and utilities", "Government", "Healthcare providers", "Health Plans", "Life sciences", "Industrial products", "Insurance", "Media and entertainment", "Retail", "Travel and transportation" ], "solutionTags" : [ "Security" ], "lineOfBusiness" : [ "Infrastructure", "Operations" ] }, "platformMetadata" : { "modifiedDate" : { "$date" : "2015-05-18T10:54:42.876+0100" } } }
{ "_id" : { "$oid" : "5559b782cda36fee02539b37" }, "vendorID" : "54d3a1444a63c3545f8b456b", "references" : [ "Virgin Media" ], "keywords" : [ "IBM i", "Security Compliance & Risk", "iSeries AS/400", "Privileged Users", "Access Controls" ], "partner" : { "brands" : [ "Virgin Media" ], "fax" : [], "tel" : [ "0870 120 3148" ], "specialisms" : [ "IBM i", "Security Compliance & Risk", "iSeries AS/400" ], "addresses" : [ { "address1" : "Fleet Mill A, Infineon House", "address2" : "Minley Road", "town" : "Fleet", "county" : "Hampshire", "country" : "", "postcode" : "GU51 2RD", "latitude" : "51.2970299", "longitude" : "-0.8302415000000565", "geocoder" : [] } ], "geographies" : [ "Scotland", "Northern Ireland", "Republic of Ireland", "Wales - N", "Wales - S", "England - NE", "England - NW", "England - Central", "England - SE & London", "England - SW" ], "name" : "HelpSystems", "description" : "HelpSystems delivers IT infrastructure software to over 8,700 customers worldwide in the areas of systems and network management, business intelligence, and security and compliance for IBM i, Unix, Linux, and Windows environments.", "vendorID" : "54d3a1444a63c3545f8b456b", "id" : "55549c45cda36f0c1b668aa6", "modifiedDate" : "2015-05-18T09:30:23+00:00", "ticked" : true }, "title" : "PowerTech Authority Broker", "description" : "PowerTech is the leading source of automated security and compliance solutions for Power Systems servers running IBM i. Our products are coupled with world-class support, helping you manage the risk of costly data breaches and meet the requirements of PCI, ISO, Data Privacy and other security regulations.\n\nUsing award-winning technology, Authority Broker protects sensitive corporate assets and audits access in real time. The number of profiles with special authorities can be reduced without disrupting normal business activity because the “switch profile” feature allows users to switch to higher authorities as needed.", "brochureId" : "5559b781cda36fee02539b36", "currentTags" : { "industries" : [ "Aerospace and defense", "Automotive", "Banking and financial markets", "Chemical and petroleum", "Consumer products", "Education", "Electronics", "Energy and utilities", "Government", "Healthcare providers", "Health Plans", "Life sciences", "Industrial products", "Insurance", "Media and entertainment", "Retail", "Travel and transportation" ], "solutionTags" : [ "Security" ], "lineOfBusiness" : [ "Infrastructure", "Operations" ] }, "platformMetadata" : { "modifiedDate" : { "$date" : "2015-05-18T10:57:22.654+0100" } } }
{ "_id" : { "$oid" : "5559b80ccda36f2102539b37" }, "vendorID" : "54d3a1444a63c3545f8b456b", "references" : [ "Lloyds Banking Group" ], "keywords" : [ "IBM i", "Security Compliance & Risk", "iSeries AS/400", "Anti Virus" ], "title" : "PowerTech StandGuard Anti Virus", "description" : "PowerTech is the leading source of automated security and compliance solutions for Power Systems servers running IBM i. Our products are coupled with world-class support, helping you manage the risk of costly data breaches and meet the requirements of PCI, ISO, Data Privacy and other security regulations.\n\nStandGuard Anti-Virus protects data stored on IBM Power Systems from viruses, worms, and malware. IBM servers are the perfect hosts for malicious code, quietly spreading it across your entire network. This native scanning solution, powered by McAfee, keeps IBM i, AIX, and Linux systems clean.", "brochureId" : "5559b80acda36f2102539b36", "currentTags" : { "industries" : [ "Aerospace and defense", "Automotive", "Banking and financial markets", "Chemical and petroleum", "Consumer products", "Education", "Electronics", "Energy and utilities", "Government", "Healthcare providers", "Health Plans", "Life sciences", "Industrial products", "Insurance", "Media and entertainment", "Retail", "Travel and transportation" ], "solutionTags" : [ "Security" ], "lineOfBusiness" : [ "Infrastructure", "Operations" ] }, "platformMetadata" : { "modifiedDate" : { "$date" : "2015-05-18T10:59:40.486+0100" } } }
{ "_id" : { "$oid" : "5559ba0bcda36f8003539b37" }, "vendorID" : "54d3a1444a63c3545f8b456b", "references" : [ "Available on request." ], "keywords" : [ "High Availability", "Disaster Recover", "Business Continuity", "Cloud Services", "IBM i" ], "partner" : { "brands" : [ "Available on request." ], "fax" : [], "tel" : [ "0845 557 5705" ], "specialisms" : [ "High Availability", "Disaster Recovery", "Business Continuity", "Cloud Services", "IBM i" ], "addresses" : [ { "address1" : "Riverside Business Centre Suite 15", "address2" : "River Lawn Road", "town" : "Tonbridge", "county" : "Kent", "country" : "", "postcode" : "TN9 1EP", "latitude" : "51.193225", "longitude" : "0.27196409999999105", "geocoder" : [] } ], "geographies" : [ "Scotland", "Northern Ireland", "Republic of Ireland", "Wales - N", "Wales - S", "England - NE", "England - NW", "England - Central", "England - SE & London", "England - SW" ], "name" : "Maxava", "description" : "Maxava is an IBM premier business partner and worldwide provider of innovative business continuity software solutions for IBM i. The Maxava HA Suite provides proven, real-time replication to deliver enterprise-strength high availability and disaster recovery for all sizes of organization, even in the toughest environments. The Maxava HA Suite is fast, reliable and easy to implement and maintain, providing cost effective, scalable and secure data replication through SaaS, Cloud, subscription and traditional licensed software models.", "vendorID" : "54d3a1444a63c3545f8b456b", "id" : "5559b8f0cda36f9a02539b36", "modifiedDate" : "2015-05-18T10:03:28+00:00", "ticked" : true }, "title" : "Maxava HA", "description" : "Maxava offers High Availability software that uses the full native functionality of the IBM i operating system. Maxava HA Suite provides real-time replication, unlimited concurrent apply processes, constant data checking, an easy to use GUI and maxView – our mobile monitoring system.\n\nMaxava is an IBM premier business partner and worldwide provider of innovative business continuity software solutions for IBM i. The Maxava HA Suite provides proven, real-time replication to deliver enterprise-strength high availability and disaster recovery for all sizes of organization, even in the toughest environments. The Maxava HA Suite is fast, reliable and easy to implement and maintain, providing cost effective, scalable and secure data replication through SaaS, Cloud, subscription and traditional licensed software models.", "brochureId" : "5559ba09cda36f8003539b36", "currentTags" : { "industries" : [ "Consumer products", "Electronics" ], "solutionTags" : [ "Security" ], "lineOfBusiness" : [ "Sales", "Operations" ] }, "platformMetadata" : { "modifiedDate" : { "$date" : "2015-05-18T11:08:11.529+0100" } } }
{ "_id" : { "$oid" : "559123cacda36f000ce265a9" }, "vendorID" : "54d3a1444a63c3545f8b456b", "references" : [], "keywords" : [], "currentTags" : { "industries" : [], "solutionTags" : [], "lineOfBusiness" : [] }, "platformMetadata" : { "modifiedDate" : { "$date" : "2015-06-29T11:54:02.132+0100" } } }
