{ "_id" : { "$oid" : "54f88ced4a63c377048b4567" }, "name" : "industries", "title" : "Industry Alignment", "platformMetadata" : { "modifiedDate" : { "$date" : "2015-03-05T17:05:49.017+0000" } } }
{ "_id" : { "$oid" : "54f88cfa4a63c376048b4567" }, "name" : "lineOfBusiness", "title" : "Line of Business", "platformMetadata" : { "modifiedDate" : { "$date" : "2015-03-05T17:06:02.470+0000" } } }
{ "_id" : { "$oid" : "54f88d054a63c375048b4567" }, "name" : "solutionTags", "title" : "Solutions Alignment", "platformMetadata" : { "modifiedDate" : { "$date" : "2015-03-05T17:06:13.741+0000" } } }
